{
  "resolution": "main",
  "tree": {
    "src": "https://raw.githubusercontent.com/DefinitelyTyped/DefinitelyTyped/70bf7e2bfeb0d5b1b651ef3219bcc65c8eec117e/cordova/plugins/Keyboard.d.ts",
    "raw": "github:DefinitelyTyped/DefinitelyTyped/cordova/plugins/Keyboard.d.ts#70bf7e2bfeb0d5b1b651ef3219bcc65c8eec117e",
    "typings": "https://raw.githubusercontent.com/DefinitelyTyped/DefinitelyTyped/70bf7e2bfeb0d5b1b651ef3219bcc65c8eec117e/cordova/plugins/Keyboard.d.ts"
  }
}
